<?xml version="1.0" encoding="iso-8859-1"?>
<svg version="1.1" id="Capa_1" xmlns="http://www.w3.org/2000/svg" xmlns:xlink="http://www.w3.org/1999/xlink" x="0px" y="0px"
	 viewBox="0 0 512 512" style="enable-background:new 0 0 512 512;" xml:space="preserve">
<circle style="fill:#F8BD9A;" cx="255.996" cy="255.992" r="135.996"/>
<circle style="fill:#D2C3E2;" cx="439.99" cy="87.997" r="63.998"/>
<g>
	<path style="fill:#403E3E;" d="M278.035,512h-44.063l-12.24-42.791c-14.616-2.328-28.935-6.152-42.711-11.4l-31.943,30.895
		l-38.167-22.031l10.808-43.175c-11.432-9.304-21.911-19.783-31.231-31.223l-43.175,10.808l-22.031-38.175l30.895-31.935
		c-5.248-13.76-9.072-28.087-11.4-42.719L0.004,278.031v-44.063l42.783-12.232c2.328-14.616,6.152-28.943,11.4-42.727
		l-30.895-31.935l22.031-38.167l43.167,10.8c9.32-11.44,19.791-21.919,31.239-31.239l-10.8-43.159l38.167-22.031l31.935,30.887
		c13.768-5.248,28.103-9.08,42.735-11.408L233.973,0h44.063l12.224,42.767c14.624,2.336,28.951,6.16,42.735,11.408l31.927-30.887
		l38.167,22.031L392.28,88.477c11.44,9.312,21.903,19.791,31.231,31.239l43.167-10.8l22.031,38.159l-30.879,31.943
		c5.24,13.752,9.064,28.079,11.4,42.719l42.767,12.224v44.063l-42.783,12.232c-2.336,14.624-6.16,28.951-11.408,42.719
		l30.895,31.935l-22.031,38.167l-43.175-10.808c-9.304,11.44-19.783,21.903-31.223,31.223l10.808,43.175l-38.167,22.031
		L332.97,457.81c-13.76,5.24-28.079,9.064-42.711,11.4L278.035,512z M246.036,496h19.935l11.76-41.167l5.184-0.704
		c16.839-2.264,33.279-6.656,48.87-13.048l4.832-1.976l30.743,29.719l17.263-9.968l-10.4-41.527l4.136-3.192
		c13.384-10.376,25.415-22.407,35.767-35.759l3.192-4.136l41.527,10.392l9.968-17.263l-29.727-30.727l1.976-4.832
		c6.4-15.608,10.792-32.055,13.056-48.886l0.704-5.176l41.167-11.776V246.04l-41.159-11.768l-0.704-5.184
		c-2.264-16.847-6.656-33.295-13.048-48.878l-1.976-4.84l29.711-30.727l-9.968-17.263l-41.519,10.384l-3.192-4.128
		c-10.376-13.384-22.415-25.423-35.767-35.775l-4.136-3.2l10.392-41.519l-17.263-9.968l-30.719,29.719l-4.832-1.984
		c-15.624-6.4-32.079-10.792-48.902-13.056l-5.176-0.696L265.972,16h-19.927l-11.76,41.151l-5.184,0.696
		c-16.831,2.264-33.287,6.656-48.894,13.056l-4.848,1.984l-30.719-29.719l-17.255,9.968l10.384,41.519l-4.128,3.192
		c-13.376,10.376-25.415,22.407-35.767,35.775l-3.2,4.128l-41.527-10.384l-9.968,17.255l29.727,30.727l-1.984,4.832
		c-6.4,15.624-10.792,32.071-13.048,48.886l-0.696,5.192l-41.175,11.776v19.935l41.167,11.76l0.696,5.184
		c2.264,16.839,6.656,33.287,13.048,48.886l1.984,4.832l-29.727,30.727l9.968,17.263l41.535-10.4l3.2,4.136
		c10.376,13.384,22.407,25.415,35.767,35.759l4.128,3.2l-10.392,41.527l17.255,9.968l30.735-29.727l4.832,1.976
		c15.624,6.408,32.063,10.792,48.87,13.048l5.192,0.696L246.036,496z"/>
	<path style="fill:#403E3E;" d="M256.004,431.987c-97.045,0-175.995-78.95-175.995-175.995s78.95-175.995,175.995-175.995
		s175.995,78.95,175.995,175.995S353.049,431.987,256.004,431.987z M256.004,95.997c-88.221,0-159.995,71.774-159.995,159.995
		s71.774,159.995,159.995,159.995s159.995-71.774,159.995-159.995S344.225,95.997,256.004,95.997z"/>
	<path style="fill:#403E3E;" d="M400,263.992h-16v-8c0-70.574-57.422-127.996-127.996-127.996h-8v-15.999h8
		c79.398,0,143.996,64.598,143.996,143.995V263.992z"/>
	<path style="fill:#403E3E;" d="M256.004,295.991c-22.055,0-39.999-17.943-39.999-39.999s17.943-39.999,39.999-39.999
		s39.999,17.943,39.999,39.999S278.059,295.991,256.004,295.991z M256.004,231.993c-13.232,0-23.999,10.768-23.999,23.999
		c0,13.232,10.768,23.999,23.999,23.999c13.232,0,23.999-10.768,23.999-23.999C280.003,242.76,269.236,231.993,256.004,231.993z"/>
	<rect x="287.995" y="247.992" style="fill:#403E3E;" width="71.998" height="16"/>
	<rect x="247.996" y="383.988" style="fill:#403E3E;" width="16" height="16"/>
	<rect x="343.993" y="343.989" style="fill:#403E3E;" width="16" height="16"/>
	<rect x="151.999" y="343.989" style="fill:#403E3E;" width="16" height="16"/>
	<rect x="151.999" y="151.995" style="fill:#403E3E;" width="16" height="16"/>
	<rect x="112" y="247.992" style="fill:#403E3E;" width="16" height="16"/>
</g>
</svg>
