<?xml version="1.0" encoding="iso-8859-1"?>
<svg xmlns="http://www.w3.org/2000/svg" xmlns:xlink="http://www.w3.org/1999/xlink" version="1.1" id="Layer_1" x="0px" y="0px" viewBox="0 0 507.2 507.2" style="enable-background:new 0 0 507.2 507.2;" xml:space="preserve">
<circle style="fill:#D2C3E2;" cx="269.6" cy="173.6" r="152"/>
<circle style="fill:#F8BD9A;" cx="141.6" cy="397.6" r="64"/>
<path style="fill:#403E3E;" d="M53.6,282.4c-4,0-8-1.6-11.2-4.8L0,235.2L11.2,224l42.4,42.4l124.8-124.8L88,51.2L99.2,40l90.4,90.4  c3.2,3.2,4.8,7.2,4.8,11.2s-1.6,8-4.8,11.2L64.8,277.6C61.6,280.8,57.6,282.4,53.6,282.4z"/>
<g>
	<polygon style="fill:#403E3E;" points="240,203.2 226.4,189.6 194.4,189.6 168,163.2 179.2,152 200.8,173.6 232.8,173.6 251.2,192     "/>
	<path style="fill:#403E3E;" d="M375.2,389.6L375.2,389.6c-8,0-16-3.2-21.6-8.8L312,339.2l11.2-11.2l41.6,41.6c2.4,2.4,6.4,4,10.4,4   l0,0c4,0,7.2-1.6,10.4-4c2.4-2.4,4-6.4,4-10.4s-1.6-7.2-4-10.4L344,307.2l11.2-11.2l41.6,41.6c5.6,5.6,8.8,13.6,8.8,21.6   s-3.2,16-8.8,21.6C391.2,386.4,383.2,389.6,375.2,389.6z"/>
	<path style="fill:#403E3E;" d="M343.2,421.6L343.2,421.6c-8,0-16-3.2-21.6-8.8L280,371.2l11.2-11.2l41.6,41.6c2.4,2.4,6.4,4,10.4,4   l0,0c4,0,7.2-1.6,10.4-4c2.4-2.4,4-6.4,4-10.4s-1.6-7.2-4-10.4L312,339.2l11.2-11.2l41.6,41.6c5.6,5.6,8.8,13.6,8.8,21.6   s-3.2,16-8.8,21.6C359.2,418.4,351.2,421.6,343.2,421.6z"/>
	<path style="fill:#403E3E;" d="M311.2,453.6L311.2,453.6c-8,0-16-3.2-21.6-8.8L248,403.2l11.2-11.2l41.6,41.6c2.4,2.4,6.4,4,10.4,4   l0,0c4,0,7.2-1.6,10.4-4c2.4-2.4,4-6.4,4-10.4s-1.6-7.2-4-10.4L280,371.2l11.2-11.2l41.6,41.6c5.6,5.6,8.8,13.6,8.8,21.6   s-3.2,16-8.8,21.6C327.2,450.4,319.2,453.6,311.2,453.6z"/>
	<path style="fill:#403E3E;" d="M279.2,485.6L279.2,485.6c-8,0-16-3.2-21.6-8.8l-172-172v-16L64,267.2L75.2,256l26.4,26.4v16   l167.2,167.2c2.4,2.4,6.4,4,10.4,4l0,0c4,0,7.2-1.6,10.4-4c2.4-2.4,4-6.4,4-10.4s-1.6-7.2-4-10.4L248,403.2l11.2-11.2l41.6,41.6   c5.6,5.6,8.8,13.6,8.8,21.6s-3.2,16-8.8,21.6C295.2,482.4,287.2,485.6,279.2,485.6z"/>
	<rect x="45.6" y="213.6" style="fill:#403E3E;" width="16" height="16"/>
	<path style="fill:#403E3E;" d="M453.6,282.4c-4,0-8-1.6-11.2-4.8L317.6,152.8c-3.2-3.2-4.8-7.2-4.8-11.2s1.6-8,4.8-11.2L408,40   l11.2,11.2l-90.4,90.4l124.8,124.8L496,224l11.2,11.2l-42.4,42.4C461.6,280.8,457.6,282.4,453.6,282.4z"/>
	<polygon style="fill:#403E3E;" points="387.2,339.2 376,328 405.6,298.4 405.6,282.4 432,256 443.2,267.2 421.6,288.8 421.6,304.8     "/>
	<path style="fill:#403E3E;" d="M228,485.6c-8,0-16-3.2-21.6-8.8s-8.8-13.6-8.8-21.6s3.2-16,8.8-21.6l9.6-9.6l11.2,11.2l-9.6,9.6   c-2.4,2.4-4,6.4-4,10.4s1.6,7.2,4,10.4c5.6,5.6,15.2,5.6,20.8,0l9.6-9.6l11.2,11.2l-9.6,9.6C244,482.4,236.8,485.6,228,485.6z"/>
	<path style="fill:#403E3E;" d="M196,453.6c-8,0-16-3.2-21.6-8.8s-8.8-13.6-8.8-21.6s3.2-16,8.8-21.6l9.6-9.6l11.2,11.2l-9.6,9.6   c-2.4,2.4-4,6.4-4,10.4s1.6,7.2,4,10.4c5.6,5.6,15.2,5.6,20.8,0l9.6-9.6l11.2,11.2l-9.6,9.6C212,450.4,204.8,453.6,196,453.6z"/>
	<path style="fill:#403E3E;" d="M164,421.6c-8,0-16-3.2-21.6-8.8s-8.8-13.6-8.8-21.6s3.2-16,8.8-21.6l9.6-9.6l11.2,11.2l-9.6,9.6   c-2.4,2.4-4,6.4-4,10.4s1.6,7.2,4,10.4c5.6,5.6,15.2,5.6,20.8,0l9.6-9.6l11.2,11.2l-9.6,9.6C180,418.4,172.8,421.6,164,421.6z"/>
	<path style="fill:#403E3E;" d="M132,389.6c-8,0-16-3.2-21.6-8.8s-8.8-13.6-8.8-21.6s3.2-16,8.8-21.6l9.6-9.6l11.2,11.2l-9.6,9.6   c-2.4,2.4-4,6.4-4,10.4s1.6,7.2,4,10.4c5.6,5.6,15.2,5.6,20.8,0l9.6-9.6l11.2,11.2l-9.6,9.6C148,386.4,140.8,389.6,132,389.6z"/>
	<path style="fill:#403E3E;" d="M212,293.6c-8,0-16-3.2-21.6-8.8s-8.8-13.6-8.8-21.6s3.2-16,8.8-21.6l68-68h48L328,152l11.2,11.2   l-26.4,26.4h-48l-63.2,63.2c-2.4,2.4-4,6.4-4,10.4s1.6,7.2,4,10.4c5.6,5.6,15.2,5.6,20.8,0l52-52h27.2v8c0,10.4,4,20.8,12,28   s17.6,12,28,12h16c8.8,0,16-7.2,16-16h16c0,17.6-14.4,32-32,32h-16c-15.2,0-28.8-5.6-39.2-16.8c-8.8-8.8-14.4-20-16-31.2h-5.6   l-47.2,47.2C228,290.4,220.8,293.6,212,293.6z"/>
	<rect x="445.6" y="213.6" style="fill:#403E3E;" width="16" height="16"/>
</g>
</svg>
