<?xml version="1.0" encoding="iso-8859-1"?>
<svg version="1.1" id="Capa_1" xmlns="http://www.w3.org/2000/svg" xmlns:xlink="http://www.w3.org/1999/xlink" x="0px" y="0px"
	 viewBox="0 0 512 512" style="enable-background:new 0 0 512 512;" xml:space="preserve">
<circle style="fill:#F8BD9A;" cx="202.323" cy="231.226" r="156.903"/>
<circle style="fill:#D2C3E2;" cx="441.806" cy="346.839" r="66.065"/>
<g>
	<rect x="136.258" y="33.032" style="fill:#403E3E;" width="66.065" height="16.516"/>
	<rect x="103.226" y="33.032" style="fill:#403E3E;" width="16.516" height="16.516"/>
	<rect x="128" y="462.452" style="fill:#403E3E;" width="49.548" height="16.516"/>
	<path style="fill:#403E3E;" d="M260.129,512H45.419c-11.025,0-21.397-4.302-29.192-12.098
		c-7.804-7.804-12.098-18.168-12.098-29.192V41.29c0-11.016,4.294-21.388,12.09-29.192C24.031,4.294,34.403,0,45.419,0h214.71
		c11.025,0,21.388,4.294,29.192,12.09c7.796,7.804,12.098,18.176,12.098,29.201v189.935h-16.516V41.29
		c0-6.615-2.585-12.833-7.259-17.515c-4.682-4.682-10.901-7.259-17.515-7.259H45.419c-6.615,0-12.833,2.577-17.515,7.259
		s-7.259,10.901-7.259,17.515V470.71c0,6.615,2.577,12.833,7.259,17.515c4.682,4.682,10.901,7.259,17.515,7.259h214.71
		c6.615,0,12.841-2.585,17.515-7.259c4.674-4.674,7.259-10.901,7.259-17.515V280.774h16.516V470.71
		c0,11.025-4.302,21.397-12.098,29.192C281.526,507.698,271.154,512,260.129,512z"/>
	<rect x="12.387" y="66.065" style="fill:#403E3E;" width="280.774" height="16.516"/>
	<rect x="12.387" y="429.419" style="fill:#403E3E;" width="280.774" height="16.516"/>
	<path style="fill:#403E3E;" d="M152.774,330.323c-40.977,0-74.323-33.338-74.323-74.323c0-40.977,33.346-74.323,74.323-74.323
		s74.323,33.346,74.323,74.323C227.097,296.985,193.751,330.323,152.774,330.323z M152.774,198.194
		c-31.876,0-57.806,25.93-57.806,57.806c0,31.868,25.93,57.806,57.806,57.806s57.806-25.939,57.806-57.806
		C210.581,224.124,184.65,198.194,152.774,198.194z"/>
	<rect x="251.871" y="247.742" style="fill:#403E3E;" width="16.516" height="16.516"/>
	<rect x="284.903" y="247.742" style="fill:#403E3E;" width="16.516" height="16.516"/>
	<rect x="317.935" y="247.742" style="fill:#403E3E;" width="16.516" height="16.516"/>

		<rect x="178.224" y="132.129" transform="matrix(-0.7651 0.644 -0.644 -0.7651 586.0159 66.9725)" style="fill:#403E3E;" width="205.134" height="16.517"/>

		<rect x="272.496" y="269.035" transform="matrix(-0.6441 0.7649 -0.7649 -0.6441 745.8333 396.1881)" style="fill:#403E3E;" width="16.516" height="205.116"/>
	<rect x="144.516" y="231.226" style="fill:#403E3E;" width="16.516" height="49.548"/>
	<rect x="128" y="247.742" style="fill:#403E3E;" width="49.548" height="16.516"/>
	<path style="fill:#403E3E;" d="M499.613,148.645H350.968V0h148.645V148.645z M367.484,132.129h115.613V16.516H367.484V132.129z"/>
	<path style="fill:#403E3E;" d="M466.581,115.613H384V33.032h82.581V115.613z M400.516,99.097h49.548V49.548h-49.548V99.097z"/>
	<rect x="417.032" y="66.065" style="fill:#403E3E;" width="16.516" height="16.516"/>
	<path style="fill:#403E3E;" d="M499.613,330.323H350.968V181.677h148.645V330.323z M367.484,313.806h115.613V198.194H367.484
		V313.806z"/>
	<path style="fill:#403E3E;" d="M466.581,297.29H384V214.71h82.581V297.29z M400.516,280.774h49.548v-49.548h-49.548V280.774z"/>
	<rect x="417.032" y="247.742" style="fill:#403E3E;" width="16.516" height="16.516"/>
	<path style="fill:#403E3E;" d="M499.613,512H350.968V363.355h148.645V512z M367.484,495.484h115.613V379.871H367.484V495.484z"/>
	<path style="fill:#403E3E;" d="M466.581,478.968H384v-82.581h82.581V478.968z M400.516,462.452h49.548v-49.548h-49.548V462.452z"/>
	<rect x="417.032" y="429.419" style="fill:#403E3E;" width="16.516" height="16.516"/>
</g>
</svg>
