<?xml version="1.0" encoding="UTF-8"?>
<svg width="461px" height="321px" viewBox="0 0 461 321" version="1.1" xmlns="http://www.w3.org/2000/svg" xmlns:xlink="http://www.w3.org/1999/xlink">
    <!-- Generator: Sketch 51.3 (57544) - http://www.bohemiancoding.com/sketch -->
    <title>logo</title>
    <desc>Created with Sketch.</desc>
    <defs></defs>
    <g id="logo" stroke="none" stroke-width="1" fill="none" fill-rule="evenodd">
        <path d="M128.558,215.992 L141.905,215.992 C148.122,215.992 153.881,213.315 153.881,206.035 C153.881,202.696 152.113,200.676 149.233,199.767 C152.215,198.504 154.639,196.128 154.639,192.13 C154.639,187.329 151.204,184.652 144.787,184.652 L134.625,184.652 L128.558,215.992 Z M140.186,197.444 L141.501,190.663 L142.866,190.663 C145.191,190.663 146.708,191.32 146.708,193.547 C146.708,196.583 144.079,197.444 142.158,197.444 L140.186,197.444 Z M137.759,209.982 L139.074,203.049 L142.461,203.049 C144.332,203.049 145.95,203.808 145.95,206.035 C145.95,208.869 144.13,209.982 141.349,209.982 L137.759,209.982 Z M157.021,215.992 L177.442,215.992 L178.806,209.982 L166.221,209.982 L167.484,203.302 L175.976,203.302 L177.037,197.342 L168.647,197.342 L169.961,190.663 L182.294,190.663 L183.356,184.652 L163.087,184.652 L157.021,215.992 Z M187.608,215.992 L195.645,215.992 L200.547,190.663 L207.876,190.663 L208.988,184.652 L186.142,184.652 L185.03,190.663 L192.511,190.663 L187.608,215.992 Z M210.864,215.992 L218.901,215.992 L223.803,190.663 L231.132,190.663 L232.244,184.652 L209.398,184.652 L208.286,190.663 L215.767,190.663 L210.864,215.992 Z M229.672,215.992 L250.092,215.992 L251.457,209.982 L238.871,209.982 L240.135,203.302 L248.626,203.302 L249.688,197.342 L241.297,197.342 L242.611,190.663 L254.944,190.663 L256.006,184.652 L235.737,184.652 L229.672,215.992 Z M255.81,215.992 L263.849,215.992 L265.921,205.223 L268.197,205.223 C270.168,205.223 270.977,205.425 271.331,208.509 L271.533,210.329 C271.736,211.998 272.191,214.172 272.797,215.992 L280.933,215.992 C280.023,214.172 279.67,212.15 279.316,209.47 L279.114,207.7 C278.811,205.072 277.851,203.557 276.335,202.647 C280.478,200.93 283.155,197.796 283.155,193.192 C283.155,187.279 279.468,184.652 272.595,184.652 L261.877,184.652 L255.81,215.992 Z M267.034,199.415 L268.753,190.663 L271.23,190.663 C273.859,190.663 275.224,191.523 275.224,194.103 C275.224,197.341 272.696,199.415 269.41,199.415 L267.034,199.415 Z M294.233,215.992 L302.27,215.992 L304.645,203.605 L313.239,203.605 L310.863,215.992 L318.9,215.992 L324.965,184.652 L316.929,184.652 L314.553,196.786 L305.96,196.786 L308.335,184.652 L300.298,184.652 L294.233,215.992 Z M325.376,215.992 L345.796,215.992 L347.161,209.982 L334.575,209.982 L335.839,203.302 L344.331,203.302 L345.392,197.342 L337.001,197.342 L338.316,190.663 L350.649,190.663 L351.71,184.652 L331.441,184.652 L325.376,215.992 Z M348.683,215.992 L355.608,215.992 L358.337,209.976 L366.424,209.976 L367.233,215.992 L375.22,215.992 L370.468,184.652 L363.392,184.652 L348.683,215.992 Z M360.915,204.218 L364.605,195.775 L365.666,204.218 L360.915,204.218 Z M378.562,215.992 L399.588,215.992 L400.649,209.982 L387.761,209.982 L392.664,184.652 L384.627,184.652 L378.562,215.992 Z M403.435,215.992 L411.472,215.992 L416.375,190.663 L423.704,190.663 L424.816,184.652 L401.969,184.652 L400.857,190.663 L408.338,190.663 L403.435,215.992 Z M422.243,215.992 L430.28,215.992 L432.656,203.605 L441.249,203.605 L438.873,215.992 L446.91,215.992 L452.976,184.652 L444.939,184.652 L442.563,196.786 L433.97,196.786 L436.346,184.652 L428.309,184.652 L422.243,215.992 Z" id="Fill-1" fill="#19486A"></path>
        <path d="M119.527,187.911 L126.788,187.911 L132.081,160.312 L136.672,160.312 L137.703,155.305 L133.018,155.305 L133.768,151.506 C134.377,148.177 135.033,147.38 136.391,147.38 C137.234,147.38 138.171,148.224 138.265,150.1 L142.34,149.49 L142.153,148.412 C141.591,145.368 139.764,143.497 136.344,143.497 C130.91,143.497 127.631,145.602 126.554,151.506 L125.804,155.305 L122.478,155.305 L121.401,160.312 L124.821,160.312 L119.527,187.911 Z M136.348,168.235 C136.348,174.561 140.655,177.228 145.527,177.228 C153.168,177.228 158.599,171.751 158.599,163.173 C158.599,156.847 154.292,154.18 149.42,154.18 C141.779,154.18 136.348,159.657 136.348,168.235 Z M145.903,173.298 C143.558,173.298 143.418,170.907 144.168,166.923 L144.543,164.86 C145.434,160.173 146.841,158.11 149.045,158.11 C151.389,158.11 151.529,160.501 150.78,164.485 L150.404,166.548 C149.513,171.235 148.107,173.298 145.903,173.298 Z M160.01,176.671 L167.224,176.671 L169.85,162.796 C170.506,159.425 171.302,158.816 172.005,158.816 C172.661,158.816 172.755,159.378 172.755,159.94 C172.755,160.782 172.474,162.094 172.193,162.983 L177.857,162.983 C178.466,161.672 178.841,160.127 178.841,159.003 C178.841,156.568 177.857,154.508 175.049,154.508 C173.551,154.508 171.865,155.21 170.74,156.381 L171.159,154.227 L164.132,155.305 L160.01,176.671 Z" id="Fill-2" fill="#19486A"></path>
        <path d="M145.435,132.518 C144.07,139.493 147.607,144.089 155.793,144.089 C164.539,144.089 168.483,138.887 169.898,131.608 L173.69,112.143 L166.814,112.143 L163.023,131.608 C162.113,136.209 159.939,138.281 156.804,138.281 C153.467,138.281 152.81,135.804 153.467,132.518 L157.512,112.143 L149.476,112.143 L145.435,132.518 Z M174.101,143.489 L180.925,143.489 L183.957,127.664 L193.056,143.489 L197.908,143.489 L203.974,112.143 L197.15,112.143 L193.915,128.675 L185.069,112.143 L180.166,112.143 L174.101,143.489 Z M204.385,143.489 L212.42,143.489 L218.484,112.143 L210.449,112.143 L204.385,143.489 Z M223.343,143.483 L231.379,143.483 L236.282,118.153 L243.611,118.153 L244.723,112.143 L221.877,112.143 L220.765,118.153 L228.245,118.153 L223.343,143.483 Z M242.15,143.483 L262.571,143.483 L263.935,137.473 L251.35,137.473 L252.613,130.793 L261.105,130.793 L262.166,124.833 L253.776,124.833 L255.09,118.153 L267.423,118.153 L268.485,112.143 L248.216,112.143 L242.15,143.483 Z M268.288,143.483 L279.259,143.483 C290.483,143.483 298.364,137.27 298.364,124.121 C298.364,115.981 293.362,112.143 283.607,112.143 L274.305,112.143 L268.288,143.483 Z M277.439,137.473 L281.13,118.153 L282.445,118.153 C287.551,118.153 289.877,120.176 289.877,124.424 C289.877,133.174 285.529,137.473 279.563,137.473 L277.439,137.473 Z M306.206,143.483 L313.131,143.483 L315.86,137.466 L323.947,137.466 L324.756,143.483 L332.742,143.483 L327.991,112.143 L320.915,112.143 L306.206,143.483 Z M318.438,131.709 L322.128,123.266 L323.189,131.709 L318.438,131.709 Z M335.731,131.707 C335.731,140.099 339.823,144.089 347.404,144.089 C354.684,144.089 358.223,139.594 360.852,134.539 L355.695,131.606 C353.723,135.854 351.448,138.18 348.668,138.18 C345.685,138.18 343.966,136.157 343.966,131.758 C343.966,122.857 347.758,117.243 352.105,117.243 C354.886,117.243 356.504,119.013 357.161,123.312 L362.773,121.643 C362.065,115.526 358.931,111.334 352.712,111.334 C343.157,111.334 335.731,118.457 335.731,131.707 Z M366.722,143.483 L374.759,143.483 L379.662,118.153 L386.991,118.153 L388.103,112.143 L365.257,112.143 L364.145,118.153 L371.625,118.153 L366.722,143.483 Z M385.53,143.489 L393.565,143.489 L399.629,112.143 L391.594,112.143 L385.53,143.489 Z M400.646,131.555 C400.646,139.898 405.142,144.089 412.776,144.089 C422.284,144.089 429.913,136.865 429.913,123.868 C429.913,115.526 425.366,111.334 417.783,111.334 C408.275,111.334 400.646,118.558 400.646,131.555 Z M408.881,131.606 C408.881,123.008 412.523,117.193 417.024,117.193 C419.908,117.193 421.678,119.215 421.678,123.818 C421.678,132.415 418.036,138.231 413.585,138.231 C410.601,138.231 408.881,136.208 408.881,131.606 Z M430.93,143.489 L437.754,143.489 L440.786,127.664 L449.885,143.489 L454.737,143.489 L460.803,112.143 L453.979,112.143 L450.744,128.675 L441.898,112.143 L436.995,112.143 L430.93,143.489 Z" id="Fill-3" fill="#19486A"></path>
        <path d="M100.79,276.6 C91.584,277.487 83.737,283.79 81.5,293.315 C78.904,304.364 84.523,313.326 91.601,317.575 C96.373,320.44 101.644,321.317 107.056,320.361 C112.072,319.474 116.672,317.161 119.81,313.162 C128.077,302.628 126.175,290.442 118.698,283.212 C119.796,283.295 120.567,283.319 121.331,283.415 C124.535,283.818 127.726,284.402 130.941,284.622 C135.952,284.965 140.978,285.203 145.999,285.224 C150.025,285.241 154.08,285.09 158.075,284.618 C163.861,283.936 169.628,283.019 175.36,281.966 C179.023,281.293 182.647,280.323 186.219,279.252 C189.692,278.211 193.092,276.913 196.494,275.645 C198.447,274.917 200.352,274.053 202.255,273.198 C204.977,271.974 206.088,267.945 205.507,265.244 C204.393,260.069 198.631,257.548 193.908,260.164 C191.094,261.722 187.921,262.673 184.846,263.709 C181.734,264.758 178.587,265.786 175.376,266.435 C171.932,267.131 168.403,267.438 164.898,267.79 C162.997,267.981 161.064,267.842 159.155,267.988 C158.26,268.056 158.091,267.888 158.143,266.993 C158.47,261.386 158.672,255.77 159.021,250.163 C159.27,246.167 159.706,242.183 159.987,238.188 C160.01,237.866 159.509,237.234 159.2,237.2 C153.911,236.603 148.78,235.274 143.759,233.613 C140.854,232.651 138.094,231.209 135.347,229.824 C132.605,228.442 129.74,227.153 127.326,225.305 C123.058,222.037 118.647,218.887 115.06,214.813 C114.422,214.088 113.979,213.195 113.398,212.415 C112.647,211.409 111.993,211.834 111.372,212.603 C110.568,213.599 109.751,214.584 108.927,215.563 C106.064,218.961 103.196,222.355 100.33,225.749 C100.298,225.788 100.263,225.824 100.23,225.861 C96.695,229.81 93.251,233.844 89.588,237.669 C87.786,239.551 85.298,240.218 82.657,240.303 C78.838,240.427 76.02,238.351 73.347,236.089 C71.144,234.225 69.052,232.198 67.109,230.063 C65.038,227.788 63.181,225.318 61.268,222.903 C59.964,221.257 58.647,219.612 57.479,217.871 C56.264,216.061 55.161,214.169 54.117,212.254 C52.218,208.775 50.144,205.362 48.615,201.722 C46.842,197.506 45.563,193.081 44.097,188.737 C43.529,187.052 43.255,185.229 42.453,183.672 C41.329,181.492 37.469,180.29 34.995,180.514 C31.807,180.803 29.639,182.607 28.078,185.169 C26.956,187.011 26.911,189.165 27.391,191.212 C28.013,193.869 28.804,196.491 29.64,199.09 C30.325,201.221 31.132,203.317 31.974,205.393 C33.376,208.85 34.745,212.328 36.328,215.703 C37.408,218.002 38.837,220.135 40.095,222.351 C40.988,223.923 41.747,225.581 42.754,227.074 C44.793,230.096 46.91,233.069 49.092,235.991 C50.615,238.03 52.443,239.851 53.88,241.943 C56.988,246.471 60.995,250.145 64.995,253.796 C68.037,256.572 71.399,258.999 74.651,261.538 C76.502,262.983 78.342,264.465 80.323,265.711 C82.918,267.343 85.653,268.753 88.319,270.273 C89.704,271.063 91.029,271.963 92.449,272.675 C94.843,273.876 97.293,274.969 99.719,276.106 C99.97,276.223 100.222,276.338 100.79,276.6" id="Fill-4" fill="#19486A"></path>
        <path d="M157.103,38.62 C162.358,33.321 164.665,27.262 164.095,20.38 C163.621,14.66 161.201,9.59 156.841,5.747 C150.888,0.5 143.841,-0.969 136.227,0.862 C130.227,2.304 125.79,6.31 122.784,11.418 C119.065,17.737 118.882,24.63 121.908,31.395 C124.99,38.284 130.501,42.293 137.99,44.126 C136.753,44.906 135.749,45.623 134.671,46.198 C133.408,46.873 132.038,47.353 130.788,48.049 C128.829,49.139 126.883,50.268 125.018,51.51 C122.057,53.483 119.211,55.63 116.235,57.579 C112.075,60.306 108.48,63.703 104.66,66.843 C100.234,70.482 96.428,74.677 92.557,78.808 C89.725,81.831 87.452,85.376 84.922,88.683 C84.325,89.465 83.652,90.191 83.097,91.001 C81.088,93.933 79.135,96.905 77.122,99.834 C75.999,101.469 76.089,105.094 76.938,106.939 C78.183,109.642 80.348,110.788 83.043,111.338 C85.16,111.771 89.075,110.114 90.247,108.122 C92.263,104.695 94.589,101.453 96.694,98.076 C99.257,93.963 102.601,90.518 106.047,87.195 C108.404,84.922 111.095,82.997 113.622,80.897 C114.23,80.394 114.78,79.82 115.388,79.25 C116.335,80.563 117.315,81.805 118.167,83.128 C119.314,84.91 120.342,86.769 121.462,88.569 C122.687,90.537 123.967,92.473 125.211,94.429 C126.788,96.909 128.364,99.39 129.919,101.883 C130.478,102.779 130.9,103.769 131.536,104.599 C131.756,104.886 132.541,105.041 132.893,104.879 C135.124,103.848 137.251,102.578 139.517,101.64 C144.424,99.609 149.457,98.004 154.715,97.044 C160.161,96.05 165.616,95.752 171.119,95.984 C175.592,96.172 180.009,96.79 184.339,97.956 C185.076,98.154 185.518,98.363 185.589,97.163 C185.838,92.987 186.266,88.82 186.649,84.652 C187.057,80.194 187.509,75.739 187.907,71.279 C188.105,69.071 187.942,66.79 188.437,64.657 C189.191,61.416 190.551,58.595 193.824,56.765 C197.514,54.701 201.306,55.09 205.036,55.563 C209.782,56.167 214.503,57.203 219.126,58.451 C222.978,59.49 226.705,61.021 230.425,62.488 C233.364,63.648 236.257,64.945 239.077,66.366 C240.937,67.302 242.625,68.577 244.4,69.683 C246.241,70.831 248.121,71.92 249.934,73.111 C250.958,73.783 251.883,74.608 252.849,75.367 C254.431,76.608 255.889,78.077 257.633,79.019 C258.839,79.671 260.484,79.96 261.852,79.782 C266.744,79.148 269.066,75.999 269.431,71.643 C269.68,68.653 268.402,66.065 265.727,64.285 C264.257,63.309 263.027,61.977 261.593,60.94 C259.34,59.311 257.018,57.78 254.706,56.238 C252.886,55.023 251.063,53.809 249.194,52.673 C247.034,51.359 244.884,50.004 242.618,48.893 C239.514,47.37 236.376,45.857 233.125,44.701 C227.554,42.723 221.96,40.715 216.232,39.297 C210.572,37.894 204.765,36.928 198.965,36.284 C193.468,35.674 187.895,35.502 182.36,35.565 C177.867,35.616 173.376,36.255 168.892,36.72 C166.292,36.991 163.707,37.41 161.123,37.807 C159.928,37.99 158.749,38.283 157.103,38.62" id="Fill-5" fill="#4C9F38"></path>
        <path d="M41.764,156.616 C42.54,160.839 43.217,164.884 44.044,168.897 C44.563,171.422 45.216,173.928 45.969,176.394 C47.072,180.015 48.243,183.62 49.527,187.181 C50.417,189.648 51.532,192.035 52.573,194.446 C53.658,196.959 54.696,199.496 55.899,201.952 C56.939,204.076 58.141,206.125 59.344,208.164 C61.098,211.133 62.789,214.151 64.74,216.987 C67.168,220.516 69.832,223.882 72.397,227.317 C73.421,228.688 74.478,230.037 75.476,231.429 C77.44,234.169 81.418,234.997 84.408,233.854 C88.044,232.465 89.423,229.573 89.294,225.852 C89.242,224.384 88.666,223.171 87.646,222.001 C85.173,219.162 82.868,216.173 80.56,213.195 C79.129,211.349 77.723,209.471 76.478,207.497 C75.277,205.591 74.206,203.59 73.246,201.551 C72.034,198.977 70.968,196.332 69.885,193.7 C69.352,192.404 68.861,191.084 68.501,189.735 C68.441,189.508 69.092,188.901 69.51,188.771 C71.298,188.21 73.115,187.743 74.931,187.274 C79.779,186.024 84.624,184.762 89.483,183.56 C91.892,182.964 94.334,182.501 96.755,181.953 C97.591,181.764 98.078,181.423 97.864,180.333 C96.965,175.759 96.504,171.132 96.524,166.463 C96.547,161.301 97.037,156.183 98.312,151.183 C99.263,147.464 100.245,143.717 101.667,140.165 C103.009,136.811 104.958,133.703 106.609,130.471 C106.936,129.831 107.122,129.118 107.443,128.249 C105.034,127.216 102.719,126.224 100.407,125.229 C97.709,124.067 95.018,122.888 92.313,121.742 C90.364,120.916 88.392,120.141 86.438,119.327 C84.612,118.566 82.794,117.787 80.975,117.011 C79.611,116.429 78.16,115.986 76.912,115.215 C75.511,114.35 74.045,113.383 73.048,112.114 C69.872,108.074 70.118,103.682 72.225,99.231 C73.75,96.005 75.157,92.717 76.829,89.57 C77.945,87.47 79.391,85.538 80.77,83.587 C82.803,80.707 84.835,77.819 87.012,75.048 C88.268,73.448 89.743,72.001 91.232,70.605 C94.796,67.265 98.293,63.831 102.075,60.751 C104.851,58.491 108.015,56.699 111.046,54.761 C113.395,53.26 114.045,50.881 114.083,48.42 C114.126,45.746 113.03,43.302 110.927,41.583 C110.02,40.841 108.697,40.58 107.534,40.185 C104.877,39.282 102.574,40.065 100.382,41.653 C98.058,43.337 95.6,44.838 93.273,46.519 C90.82,48.29 88.418,50.136 86.06,52.031 C84.524,53.265 83.04,54.579 81.648,55.974 C78.83,58.798 75.915,61.554 73.365,64.608 C70.324,68.249 67.599,72.156 64.785,75.982 C63.281,78.026 61.767,80.077 60.456,82.245 C58.989,84.669 57.728,87.22 56.41,89.733 C55.427,91.604 54.411,93.466 53.56,95.398 C52.092,98.728 50.617,102.066 49.378,105.484 C48.109,108.985 46.954,112.546 46.052,116.157 C45.048,120.178 44.332,124.274 43.597,128.357 C43.084,131.207 42.75,134.089 42.33,136.998 C35.753,123.68 20.629,120.744 9.977,127.752 C-0.753,134.811 -2.764,148.757 3.734,158.456 C8.353,165.35 15.055,168.601 23.3,168.227 C31.485,167.855 37.622,163.851 41.764,156.616" id="Fill-6" fill="#DD1367"></path>
    </g>
</svg>